uart/backup/uart_parity.vcd
$date
	Thu Mar 26 14:11:39 2026
$end
$version
	Icarus Verilog
$end
$timescale
	1s
$end
$scope module test $end
$var wire 1 ! uart_tx $end
$var wire 6 " led [5:0] $end
$var reg 1 # btn $end
$var reg 1 $ clk $end
$var reg 1 % uart_rx $end
$scope module u $end
$var wire 1 # btn1 $end
$var wire 1 $ clk $end
$var wire 1 % uartRx $end
$var wire 1 ! uartTx $end
$var parameter 8 & CYCLES_PER_BIT $end
$var parameter 32 ' CYCLES_PER_READ $end
$var parameter 32 ( RX_STATE_IDLE $end
$var parameter 32 ) RX_STATE_PARITY_BIT $end
$var parameter 32 * RX_STATE_READ $end
$var parameter 32 + RX_STATE_READ_WAIT $end
$var parameter 32 , RX_STATE_START_BIT $end
$var parameter 32 - RX_STATE_STOP_BIT $end
$var reg 1 . byteGood $end
$var reg 1 / byteReady $end
$var reg 8 0 dataIn [7:0] $end
$var reg 6 1 led [5:0] $end
$var reg 3 2 rxBitNumber [2:0] $end
$var reg 13 3 rxCounter [12:0] $end
$var reg 1 4 rxParity $end
$var reg 4 5 rxState [3:0] $end
$upscope $end
$upscope $end
$enddefinitions $end
$comment Show the parameter values. $end
$dumpall
b110 -
b1 ,
b10 +
b11 *
b101 )
b0 (
b100 '
b1000 &
$end
#0
$dumpvars
b0 5
04
b0 3
b0 2
bx 1
b0 0
0/
0.
1%
0$
1#
bx "
z!
$end
#1
1$
#2
0$
#3
1$
#4
0$
#5
1$
#6
0$
#7
1$
#8
0$
#9
1$
#10
0$
0%
#11
b1 3
b1 5
1$
#12
0$
#13
b10 3
1$
#14
0$
#15
b11 3
1$
#16
0$
#17
b100 3
1$
#18
0$
#19
b1 3
b10 5
1$
#20
0$
#21
b10 3
1$
#22
0$
#23
b11 3
1$
#24
0$
#25
b100 3
1$
#26
0$
1%
#27
b101 3
1$
#28
0$
#29
b110 3
1$
#30
0$
#31
b111 3
1$
#32
0$
#33
b11 5
b1000 3
1$
#34
0$
#35
b10 5
14
b1 2
b10000000 0
b1 3
1$
#36
0$
#37
b10 3
1$
#38
0$
#39
b11 3
1$
#40
0$
#41
b100 3
1$
#42
0$
0%
#43
b101 3
1$
#44
0$
#45
b110 3
1$
#46
0$
#47
b111 3
1$
#48
0$
#49
b11 5
b1000 3
1$
#50
0$
#51
b10 5
b10 2
b1000000 0
b1 3
1$
#52
0$
#53
b10 3
1$
#54
0$
#55
b11 3
1$
#56
0$
#57
b100 3
1$
#58
0$
#59
b101 3
1$
#60
0$
#61
b110 3
1$
#62
0$
#63
b111 3
1$
#64
0$
#65
b11 5
b1000 3
1$
#66
0$
#67
b10 5
b11 2
b100000 0
b1 3
1$
#68
0$
#69
b10 3
1$
#70
0$
#71
b11 3
1$
#72
0$
#73
b100 3
1$
#74
0$
#75
b101 3
1$
#76
0$
#77
b110 3
1$
#78
0$
#79
b111 3
1$
#80
0$
#81
b11 5
b1000 3
1$
#82
0$
#83
b10 5
b100 2
b10000 0
b1 3
1$
#84
0$
#85
b10 3
1$
#86
0$
#87
b11 3
1$
#88
0$
#89
b100 3
1$
#90
0$
#91
b101 3
1$
#92
0$
#93
b110 3
1$
#94
0$
#95
b111 3
1$
#96
0$
#97
b11 5
b1000 3
1$
#98
0$
#99
b10 5
b101 2
b1000 0
b1 3
1$
#100
0$
#101
b10 3
1$
#102
0$
#103
b11 3
1$
#104
0$
#105
b100 3
1$
#106
0$
1%
#107
b101 3
1$
#108
0$
#109
b110 3
1$
#110
0$
#111
b111 3
1$
#112
0$
#113
b11 5
b1000 3
1$
#114
0$
#115
b10 5
04
b110 2
b10000100 0
b1 3
1$
#116
0$
#117
b10 3
1$
#118
0$
#119
b11 3
1$
#120
0$
#121
b100 3
1$
#122
0$
#123
b101 3
1$
#124
0$
#125
b110 3
1$
#126
0$
#127
b111 3
1$
#128
0$
#129
b11 5
b1000 3
1$
#130
0$
#131
b10 5
14
b111 2
b11000010 0
b1 3
1$
#132
0$
#133
b10 3
1$
#134
0$
#135
b11 3
1$
#136
0$
#137
b100 3
1$
#138
0$
0%
#139
b101 3
1$
#140
0$
#141
b110 3
1$
#142
0$
#143
b111 3
1$
#144
0$
#145
b11 5
b1000 3
1$
#146
0$
#147
b101 5
b0 2
b1100001 0
b1 3
1$
#148
0$
#149
b110 5
1$
#150
0$
#151
b10 3
1$
#152
0$
#153
b11 3
1$
#154
0$
#155
b100 3
1$
#156
0$
#157
b101 3
1$
#158
0$
#159
b110 3
1$
#160
0$
#161
b111 3
1$
#162
0$
#163
b1000 3
1$
#164
0$
#165
1/
b0 5
b0 3
1$
#166
0$
#167
b11110 "
b11110 1
04
0/
b1 3
b1 5
1$
#168
0$
#169
b10 3
1$
1%
#170
0$
#171
b11 3
1$
#172
0$
#173
b100 3
1$
#174
0$
#175
b0 0
b1 3
b10 5
1$
#176
0$
#177
b10 3
1$
#178
0$
#179
b11 3
1$
#180
0$
#181
b100 3
1$
#182
0$
#183
b101 3
1$
#184
0$
#185
b110 3
1$
#186
0$
#187
b111 3
1$
#188
0$
#189
b11 5
b1000 3
1$
#190
0$
#191
b10 5
14
b1 2
b10000000 0
b1 3
1$
#192
0$
#193
b10 3
1$
#194
0$
#195
b11 3
1$
#196
0$
#197
b100 3
1$
#198
0$
#199
b101 3
1$
#200
0$
#201
b110 3
1$
#202
0$
#203
b111 3
1$
#204
0$
#205
b11 5
b1000 3
1$
#206
0$
#207
b10 5
04
b10 2
b11000000 0
b1 3
1$
#208
0$
#209
b10 3
1$
#210
0$
#211
b11 3
1$
#212
0$
#213
b100 3
1$
#214
0$
#215
b101 3
1$
#216
0$
#217
b110 3
1$
#218
0$
#219
b111 3
1$
#220
0$
#221
b11 5
b1000 3
1$
#222
0$
#223
b10 5
14
b11 2
b11100000 0
b1 3
1$
#224
0$
#225
b10 3
1$
#226
0$
#227
b11 3
1$
#228
0$
#229
b100 3
1$
#230
0$
#231
b101 3
1$
#232
0$
#233
b110 3
1$
#234
0$
#235
b111 3
1$
#236
0$
#237
b11 5
b1000 3
1$
#238
0$
#239
b10 5
04
b100 2
b11110000 0
b1 3
1$
#240
0$
#241
b10 3
1$
#242
0$
#243
b11 3
1$
#244
0$
#245
b100 3
1$
#246
0$
#247
b101 3
1$
#248
0$
#249
b110 3
1$
#250
0$
#251
b111 3
1$
#252
0$
#253
b11 5
b1000 3
1$
#254
0$
#255
b10 5
14
b101 2
b11111000 0
b1 3
1$
#256
0$
#257
b10 3
1$
#258
0$
#259
b11 3
1$
#260
0$
#261
b100 3
1$
#262
0$
#263
b101 3
1$
#264
0$
#265
b110 3
1$
#266
0$
#267
b111 3
1$
#268
0$
#269
b11 5
b1000 3
1$
#270
0$
#271
b10 5
04
b110 2
b11111100 0
b1 3
1$
#272
0$
#273
b10 3
1$
#274
0$
#275
b11 3
1$
#276
0$
#277
b100 3
1$
#278
0$
#279
b101 3
1$
#280
0$
#281
b110 3
1$
#282
0$
#283
b111 3
1$
#284
0$
#285
b11 5
b1000 3
1$
#286
0$
#287
b10 5
14
b111 2
b11111110 0
b1 3
1$
#288
0$
#289
b10 3
1$
#290
0$
#291
b11 3
1$
#292
0$
#293
b100 3
1$
#294
0$
#295
b101 3
1$
#296
0$
#297
b110 3
1$
#298
0$
#299
b111 3
1$
#300
0$
#301
b11 5
b1000 3
1$
#302
0$
#303
b101 5
04
b0 2
b11111111 0
b1 3
1$
#304
0$
#305
b110 5
1$
#306
0$
#307
b10 3
1$
#308
0$
#309
b11 3
1$
#310
0$
#311
b100 3
1$
#312
0$
#313
b101 3
1$
#314
0$
#315
b110 3
1$
#316
0$
#317
b111 3
1$
#318
0$
#319
b1000 3
1$
#320
0$
#321
1/
b0 5
b0 3
1$
#322
0$
#323
b0 "
b0 1
1$
